
[
    {
        "section_title": "Правила дорожного движения",
        "action": "pdd",
        "items": [         
        {
            "title": "1. Общие положения",
            "link": "1_pdd.md"
        },
        {
            "title": "2. Общие обязанности водителей",
            "link": "2_pdd.md"
        },
        {
            "title": "3. Применение специальных сигналов",
            "link": "3_pdd.md"
        },
        {
            "title": "4. Обязанности пешеходов",
            "link": "4_pdd.md"
        },
        {
            "title": "5. Обязанности пассажиров",
            "link": "5_pdd.md"
        },
        {
            "title": "6. Сигналы светофора и регулировщика",
            "link": "6_pdd.md"
        },
        {
            "title": "7. Применение аварийной сигнализации и знака аварийной остановки",
            "link": "7_pdd.md"
        },
        {
            "title": "8. Начало движения, маневрирование",
            "link": "8_pdd.md"
        },
        {
            "title": "9. Расположение транспортных средств на проезжей части",
            "link": "9_pdd.md"
        },
        {
            "title": "10. Скорость движения",
            "link": "10_pdd.md"
        },
        {
            "title": "11. Обгон, опережение, встречный разъезд",
            "link": "11_pdd.md"
        },
        {
            "title": "12. Остановка и стоянка",
            "link": "12_pdd.md"
        },
        {
            "title": "13. Проезд перекрестков",
            "link": "13_pdd.md"
        },
        {
            "title": "14. Пешеходные переходы и места остановок маршрутных транспортных средств",
            "link": "14_pdd.md"
        },
        {
            "title": "15. Движение через железнодорожные пути",
            "link": "15_pdd.md"
        },
        {
            "title": "16. Движение по автомагистралям",
            "link": "16_pdd.md"
        },
        {
            "title": "17. Движение в жилых зонах",
            "link": "17_pdd.md"
        },
        {
            "title": "18. Приоритет маршрутных транспортных средств",
            "link": "18_pdd.md"
        },
        {
            "title": "19. Пользование внешними световыми приборами и звуковыми сигналами",
            "link": "19_pdd.md"
        },
        {
            "title": "20. Буксировка механических транспортных средств",
            "link": "20_pdd.md"
        },
        {
            "title": "21. Учебная езда",
            "link": "21_pdd.md"
        },
        {
            "title": "22. Перевозка людей",
            "link": "22_pdd.md"
        },
        {
            "title": "23. Перевозка грузов",
            "link": "23_pdd.md"
        },
        {
            "title": "24. Дополнительные требования к движению велосипедистов и водителей мопедов",
            "link": "24_pdd.md"
        },
        {
            "title": "25. Дополнительные требования к движению гужевых повозок, а также к прогону животных",
            "link": "25_pdd.md"
        },
        {
            "title": "26. Нормы времени управления транспортным средством и отдыха",
            "link": "26_pdd.md"
        }
    ]
    },
    {
        "section_title": "Дорожные знаки",
        "action": "marks",
        "items": []
    },
    {
        "section_title": "Дорожная разметка",
        "action": "layout",
        "items": [
            {
                "title": "1. Горизонтальная разметка",
                "link": "horizontal.md"
            },
            {
                "title": "2. Вертикальная разметка",
                "link": "vertical.md"
            }
        ]
    },
    {
        "section_title": "Перечень неисправностей",
        "action": "errors_list",
        "link": "error_list.md"
    },
    {
        "section_title": "Основные положения по допуску",
        "action": "provision",
        "link": "provision.md"
    },
    {
        "section_title": "Правила проведения экзаменов",
        "action": "exam_rules",
        "link": "exam_rules.md"
    },
    {
        "section_title": "Таблица штрафов",
        "action": "fines"
    }
]
