<svg xmlns="http://www.w3.org/2000/svg" width="17" height="17" viewBox="0 0 17 17">
    <g fill="none" fill-rule="evenodd" stroke="#5C88E3" stroke-linecap="round" stroke-linejoin="round" stroke-width="1.52" transform="translate(1 1)">
        <circle cx="7.5" cy="7.5" r="7.5"/>
        <path d="M7.5 3v4.5l3 1.5"/>
    </g>
</svg>
