<svg xmlns="http://www.w3.org/2000/svg" width="132" height="233" viewBox="0 0 132 233">
    <defs>
        <linearGradient id="a" x1="50%" x2="50%" y1="0%" y2="97.672%">
            <stop offset="0%" stop-color="#EEF5FF" stop-opacity=".082"/>
            <stop offset="100%" stop-color="#CEE0FF" stop-opacity=".438"/>
        </linearGradient>
    </defs>
    <path fill="url(#a)" fill-rule="nonzero" d="M-70.027 212.173c64.384 0 121.316 52.431 155.855 0 21.97-33.353 41.24-74.454 34.878-118.02-4.826-33.045-43.416-22.079-73.36-60.82C1.418-26.09 4.304-110.534-70.027-110.534c-70.93 0-47.718 74.909-93.122 129.771-35.78 43.233-86.507 29.91-97.612 74.915-10.351 41.95 12.349 82.879 33.446 115.814 34.384 53.675 92.006 2.206 157.288 2.206z" transform="rotate(-109 -70.703 62.471)"/>
</svg>
