<svg xmlns="http://www.w3.org/2000/svg" width="20" height="20" viewBox="0 0 20 20">
    <g fill="none" fill-rule="evenodd" stroke="#5C88E3" stroke-linecap="round" stroke-linejoin="round" stroke-width="2" transform="translate(1 1)">
        <circle cx="8" cy="8" r="8"/>
        <path d="M18 18l-4.35-4.35"/>
    </g>
</svg>
